%YAML 1.1
%TAG !u! tag:unity3d.com,2011:
--- !u!1045 &1
EditorBuildSettings:
  m_ObjectHideFlags: 0
  serializedVersion: 2
  m_Scenes:
  - enabled: 1
    path: Assets/Scenes/MainMenu_New.unity
    guid: 2a51661f61907f242b9b968abd172a75
  - enabled: 1
    path: Assets/Scenes/GameScene.unity
    guid: 383e82052bc448a428b791add7d61edf
  - enabled: 1
    path: Assets/Scenes/BreedingScene.unity
    guid: bccbf4bb57f2b904b911a354428a8430
  - enabled: 1
    path: Assets/Scenes/Credits.unity
    guid: d93d77e962b6d1f419f446e324985097
  - enabled: 1
    path: Assets/Scenes/Instructions.unity
    guid: 444377f246d09a74eac68cf186d7e006
  - enabled: 1
    path: Assets/Scenes/Options.unity
    guid: 2dce0005e7429184aa16aff93d48fb98
  m_configObjects: {}
